^C:\USERS\CONOR\DOCUMENTS\COLLEGE\DKIT - YEAR 4\DKIT - YEAR 4  - SEMESTER 2\MULTIPLAYER DISTRIBUTED PROGRAMMING\BOMBERMANMULTIVERSE\AUDIO.CPP|C:\USERS\CONOR\DOCUMENTS\COLLEGE\DKIT - YEAR 4\DKIT - YEAR 4  - SEMESTER 2\MULTIPLAYER DISTRIBUTED PROGRAMMING\BOMBERMANMULTIVERSE\CONSOLE.CPP|C:\USERS\CONOR\DOCUMENTS\COLLEGE\DKIT - YEAR 4\DKIT - YEAR 4  - SEMESTER 2\MULTIPLAYER DISTRIBUTED PROGRAMMING\BOMBERMANMULTIVERSE\CREATETHISCLASS.CPP|C:\USERS\CONOR\DOCUMENTS\COLLEGE\DKIT - YEAR 4\DKIT - YEAR 4  - SEMESTER 2\MULTIPLAYER DISTRIBUTED PROGRAMMING\BOMBERMANMULTIVERSE\DASHBOARD.CPP|C:\USERS\CONOR\DOCUMENTS\COLLEGE\DKIT - YEAR 4\DKIT - YEAR 4  - SEMESTER 2\MULTIPLAYER DISTRIBUTED PROGRAMMING\BOMBERMANMULTIVERSE\ENTITY.CPP|C:\USERS\CONOR\DOCUMENTS\COLLEGE\DKIT - YEAR 4\DKIT - YEAR 4  - SEMESTER 2\MULTIPLAYER DISTRIBUTED PROGRAMMING\BOMBERMANMULTIVERSE\GAME.CPP|C:\USERS\CONOR\DOCUMENTS\COLLEGE\DKIT - YEAR 4\DKIT - YEAR 4  - SEMESTER 2\MULTIPLAYER DISTRIBUTED PROGRAMMING\BOMBERMANMULTIVERSE\GRAPHICS.CPP|C:\USERS\CONOR\DOCUMENTS\COLLEGE\DKIT - YEAR 4\DKIT - YEAR 4  - SEMESTER 2\MULTIPLAYER DISTRIBUTED PROGRAMMING\BOMBERMANMULTIVERSE\IMAGE.CPP|C:\USERS\CONOR\DOCUMENTS\COLLEGE\DKIT - YEAR 4\DKIT - YEAR 4  - SEMESTER 2\MULTIPLAYER DISTRIBUTED PROGRAMMING\BOMBERMANMULTIVERSE\INPUT.CPP|C:\USERS\CONOR\DOCUMENTS\COLLEGE\DKIT - YEAR 4\DKIT - YEAR 4  - SEMESTER 2\MULTIPLAYER DISTRIBUTED PROGRAMMING\BOMBERMANMULTIVERSE\INPUTDIALOG.CPP|C:\USERS\CONOR\DOCUMENTS\COLLEGE\DKIT - YEAR 4\DKIT - YEAR 4  - SEMESTER 2\MULTIPLAYER DISTRIBUTED PROGRAMMING\BOMBERMANMULTIVERSE\MESSAGEDIALOG.CPP|C:\USERS\CONOR\DOCUMENTS\COLLEGE\DKIT - YEAR 4\DKIT - YEAR 4  - SEMESTER 2\MULTIPLAYER DISTRIBUTED PROGRAMMING\BOMBERMANMULTIVERSE\TEXT.CPP|C:\USERS\CONOR\DOCUMENTS\COLLEGE\DKIT - YEAR 4\DKIT - YEAR 4  - SEMESTER 2\MULTIPLAYER DISTRIBUTED PROGRAMMING\BOMBERMANMULTIVERSE\TEXTDX.CPP|C:\USERS\CONOR\DOCUMENTS\COLLEGE\DKIT - YEAR 4\DKIT - YEAR 4  - SEMESTER 2\MULTIPLAYER DISTRIBUTED PROGRAMMING\BOMBERMANMULTIVERSE\TEXTUREMANAGER.CPP|C:\USERS\CONOR\DOCUMENTS\COLLEGE\DKIT - YEAR 4\DKIT - YEAR 4  - SEMESTER 2\MULTIPLAYER DISTRIBUTED PROGRAMMING\BOMBERMANMULTIVERSE\WINMAIN.CPP
C:\USERS\CONOR\DOCUMENTS\COLLEGE\DKIT - YEAR 4\DKIT - YEAR 4  - SEMESTER 2\MULTIPLAYER DISTRIBUTED PROGRAMMING\BOMBERMANMULTIVERSE\DEBUG\VC120.PDB
C:\USERS\CONOR\DOCUMENTS\COLLEGE\DKIT - YEAR 4\DKIT - YEAR 4  - SEMESTER 2\MULTIPLAYER DISTRIBUTED PROGRAMMING\BOMBERMANMULTIVERSE\DEBUG\VC120.IDB
C:\USERS\CONOR\DOCUMENTS\COLLEGE\DKIT - YEAR 4\DKIT - YEAR 4  - SEMESTER 2\MULTIPLAYER DISTRIBUTED PROGRAMMING\BOMBERMANMULTIVERSE\DEBUG\AUDIO.OBJ
C:\USERS\CONOR\DOCUMENTS\COLLEGE\DKIT - YEAR 4\DKIT - YEAR 4  - SEMESTER 2\MULTIPLAYER DISTRIBUTED PROGRAMMING\BOMBERMANMULTIVERSE\DEBUG\CONSOLE.OBJ
C:\USERS\CONOR\DOCUMENTS\COLLEGE\DKIT - YEAR 4\DKIT - YEAR 4  - SEMESTER 2\MULTIPLAYER DISTRIBUTED PROGRAMMING\BOMBERMANMULTIVERSE\DEBUG\DASHBOARD.OBJ
C:\USERS\CONOR\DOCUMENTS\COLLEGE\DKIT - YEAR 4\DKIT - YEAR 4  - SEMESTER 2\MULTIPLAYER DISTRIBUTED PROGRAMMING\BOMBERMANMULTIVERSE\DEBUG\ENTITY.OBJ
C:\USERS\CONOR\DOCUMENTS\COLLEGE\DKIT - YEAR 4\DKIT - YEAR 4  - SEMESTER 2\MULTIPLAYER DISTRIBUTED PROGRAMMING\BOMBERMANMULTIVERSE\DEBUG\GAME.OBJ
C:\USERS\CONOR\DOCUMENTS\COLLEGE\DKIT - YEAR 4\DKIT - YEAR 4  - SEMESTER 2\MULTIPLAYER DISTRIBUTED PROGRAMMING\BOMBERMANMULTIVERSE\DEBUG\GRAPHICS.OBJ
C:\USERS\CONOR\DOCUMENTS\COLLEGE\DKIT - YEAR 4\DKIT - YEAR 4  - SEMESTER 2\MULTIPLAYER DISTRIBUTED PROGRAMMING\BOMBERMANMULTIVERSE\DEBUG\INPUTDIALOG.OBJ
C:\USERS\CONOR\DOCUMENTS\COLLEGE\DKIT - YEAR 4\DKIT - YEAR 4  - SEMESTER 2\MULTIPLAYER DISTRIBUTED PROGRAMMING\BOMBERMANMULTIVERSE\DEBUG\MESSAGEDIALOG.OBJ
C:\USERS\CONOR\DOCUMENTS\COLLEGE\DKIT - YEAR 4\DKIT - YEAR 4  - SEMESTER 2\MULTIPLAYER DISTRIBUTED PROGRAMMING\BOMBERMANMULTIVERSE\DEBUG\TEXT.OBJ
C:\USERS\CONOR\DOCUMENTS\COLLEGE\DKIT - YEAR 4\DKIT - YEAR 4  - SEMESTER 2\MULTIPLAYER DISTRIBUTED PROGRAMMING\BOMBERMANMULTIVERSE\DEBUG\TEXTUREMANAGER.OBJ
C:\USERS\CONOR\DOCUMENTS\COLLEGE\DKIT - YEAR 4\DKIT - YEAR 4  - SEMESTER 2\MULTIPLAYER DISTRIBUTED PROGRAMMING\BOMBERMANMULTIVERSE\DEBUG\INPUT.OBJ
C:\USERS\CONOR\DOCUMENTS\COLLEGE\DKIT - YEAR 4\DKIT - YEAR 4  - SEMESTER 2\MULTIPLAYER DISTRIBUTED PROGRAMMING\BOMBERMANMULTIVERSE\DEBUG\CREATETHISCLASS.OBJ
C:\USERS\CONOR\DOCUMENTS\COLLEGE\DKIT - YEAR 4\DKIT - YEAR 4  - SEMESTER 2\MULTIPLAYER DISTRIBUTED PROGRAMMING\BOMBERMANMULTIVERSE\DEBUG\IMAGE.OBJ
C:\USERS\CONOR\DOCUMENTS\COLLEGE\DKIT - YEAR 4\DKIT - YEAR 4  - SEMESTER 2\MULTIPLAYER DISTRIBUTED PROGRAMMING\BOMBERMANMULTIVERSE\DEBUG\TEXTDX.OBJ
C:\USERS\CONOR\DOCUMENTS\COLLEGE\DKIT - YEAR 4\DKIT - YEAR 4  - SEMESTER 2\MULTIPLAYER DISTRIBUTED PROGRAMMING\BOMBERMANMULTIVERSE\DEBUG\WINMAIN.OBJ
^C:\USERS\CONOR\DOCUMENTS\COLLEGE\DKIT - YEAR 4\DKIT - YEAR 4  - SEMESTER 2\MULTIPLAYER DISTRIBUTED PROGRAMMING\BOMBERMANMULTIVERSE\AUDIO.CPP
C:\USERS\CONOR\DOCUMENTS\COLLEGE\DKIT - YEAR 4\DKIT - YEAR 4  - SEMESTER 2\MULTIPLAYER DISTRIBUTED PROGRAMMING\BOMBERMANMULTIVERSE\DEBUG\VC120.PDB
^C:\USERS\CONOR\DOCUMENTS\COLLEGE\DKIT - YEAR 4\DKIT - YEAR 4  - SEMESTER 2\MULTIPLAYER DISTRIBUTED PROGRAMMING\BOMBERMANMULTIVERSE\CONSOLE.CPP
C:\USERS\CONOR\DOCUMENTS\COLLEGE\DKIT - YEAR 4\DKIT - YEAR 4  - SEMESTER 2\MULTIPLAYER DISTRIBUTED PROGRAMMING\BOMBERMANMULTIVERSE\DEBUG\VC120.PDB
^C:\USERS\CONOR\DOCUMENTS\COLLEGE\DKIT - YEAR 4\DKIT - YEAR 4  - SEMESTER 2\MULTIPLAYER DISTRIBUTED PROGRAMMING\BOMBERMANMULTIVERSE\DASHBOARD.CPP
C:\USERS\CONOR\DOCUMENTS\COLLEGE\DKIT - YEAR 4\DKIT - YEAR 4  - SEMESTER 2\MULTIPLAYER DISTRIBUTED PROGRAMMING\BOMBERMANMULTIVERSE\DEBUG\VC120.PDB
^C:\USERS\CONOR\DOCUMENTS\COLLEGE\DKIT - YEAR 4\DKIT - YEAR 4  - SEMESTER 2\MULTIPLAYER DISTRIBUTED PROGRAMMING\BOMBERMANMULTIVERSE\ENTITY.CPP
C:\USERS\CONOR\DOCUMENTS\COLLEGE\DKIT - YEAR 4\DKIT - YEAR 4  - SEMESTER 2\MULTIPLAYER DISTRIBUTED PROGRAMMING\BOMBERMANMULTIVERSE\DEBUG\VC120.PDB
^C:\USERS\CONOR\DOCUMENTS\COLLEGE\DKIT - YEAR 4\DKIT - YEAR 4  - SEMESTER 2\MULTIPLAYER DISTRIBUTED PROGRAMMING\BOMBERMANMULTIVERSE\GAME.CPP
C:\USERS\CONOR\DOCUMENTS\COLLEGE\DKIT - YEAR 4\DKIT - YEAR 4  - SEMESTER 2\MULTIPLAYER DISTRIBUTED PROGRAMMING\BOMBERMANMULTIVERSE\DEBUG\VC120.PDB
^C:\USERS\CONOR\DOCUMENTS\COLLEGE\DKIT - YEAR 4\DKIT - YEAR 4  - SEMESTER 2\MULTIPLAYER DISTRIBUTED PROGRAMMING\BOMBERMANMULTIVERSE\GRAPHICS.CPP
C:\USERS\CONOR\DOCUMENTS\COLLEGE\DKIT - YEAR 4\DKIT - YEAR 4  - SEMESTER 2\MULTIPLAYER DISTRIBUTED PROGRAMMING\BOMBERMANMULTIVERSE\DEBUG\VC120.PDB
^C:\USERS\CONOR\DOCUMENTS\COLLEGE\DKIT - YEAR 4\DKIT - YEAR 4  - SEMESTER 2\MULTIPLAYER DISTRIBUTED PROGRAMMING\BOMBERMANMULTIVERSE\INPUTDIALOG.CPP
C:\USERS\CONOR\DOCUMENTS\COLLEGE\DKIT - YEAR 4\DKIT - YEAR 4  - SEMESTER 2\MULTIPLAYER DISTRIBUTED PROGRAMMING\BOMBERMANMULTIVERSE\DEBUG\VC120.PDB
^C:\USERS\CONOR\DOCUMENTS\COLLEGE\DKIT - YEAR 4\DKIT - YEAR 4  - SEMESTER 2\MULTIPLAYER DISTRIBUTED PROGRAMMING\BOMBERMANMULTIVERSE\MESSAGEDIALOG.CPP
C:\USERS\CONOR\DOCUMENTS\COLLEGE\DKIT - YEAR 4\DKIT - YEAR 4  - SEMESTER 2\MULTIPLAYER DISTRIBUTED PROGRAMMING\BOMBERMANMULTIVERSE\DEBUG\VC120.PDB
^C:\USERS\CONOR\DOCUMENTS\COLLEGE\DKIT - YEAR 4\DKIT - YEAR 4  - SEMESTER 2\MULTIPLAYER DISTRIBUTED PROGRAMMING\BOMBERMANMULTIVERSE\TEXT.CPP
C:\USERS\CONOR\DOCUMENTS\COLLEGE\DKIT - YEAR 4\DKIT - YEAR 4  - SEMESTER 2\MULTIPLAYER DISTRIBUTED PROGRAMMING\BOMBERMANMULTIVERSE\DEBUG\VC120.PDB
^C:\USERS\CONOR\DOCUMENTS\COLLEGE\DKIT - YEAR 4\DKIT - YEAR 4  - SEMESTER 2\MULTIPLAYER DISTRIBUTED PROGRAMMING\BOMBERMANMULTIVERSE\TEXTUREMANAGER.CPP
C:\USERS\CONOR\DOCUMENTS\COLLEGE\DKIT - YEAR 4\DKIT - YEAR 4  - SEMESTER 2\MULTIPLAYER DISTRIBUTED PROGRAMMING\BOMBERMANMULTIVERSE\DEBUG\VC120.PDB
^C:\USERS\CONOR\DOCUMENTS\COLLEGE\DKIT - YEAR 4\DKIT - YEAR 4  - SEMESTER 2\MULTIPLAYER DISTRIBUTED PROGRAMMING\BOMBERMANMULTIVERSE\INPUT.CPP
C:\USERS\CONOR\DOCUMENTS\COLLEGE\DKIT - YEAR 4\DKIT - YEAR 4  - SEMESTER 2\MULTIPLAYER DISTRIBUTED PROGRAMMING\BOMBERMANMULTIVERSE\DEBUG\VC120.PDB
^C:\USERS\CONOR\DOCUMENTS\COLLEGE\DKIT - YEAR 4\DKIT - YEAR 4  - SEMESTER 2\MULTIPLAYER DISTRIBUTED PROGRAMMING\BOMBERMANMULTIVERSE\CREATETHISCLASS.CPP
C:\USERS\CONOR\DOCUMENTS\COLLEGE\DKIT - YEAR 4\DKIT - YEAR 4  - SEMESTER 2\MULTIPLAYER DISTRIBUTED PROGRAMMING\BOMBERMANMULTIVERSE\DEBUG\VC120.PDB
^C:\USERS\CONOR\DOCUMENTS\COLLEGE\DKIT - YEAR 4\DKIT - YEAR 4  - SEMESTER 2\MULTIPLAYER DISTRIBUTED PROGRAMMING\BOMBERMANMULTIVERSE\IMAGE.CPP
C:\USERS\CONOR\DOCUMENTS\COLLEGE\DKIT - YEAR 4\DKIT - YEAR 4  - SEMESTER 2\MULTIPLAYER DISTRIBUTED PROGRAMMING\BOMBERMANMULTIVERSE\DEBUG\VC120.PDB
^C:\USERS\CONOR\DOCUMENTS\COLLEGE\DKIT - YEAR 4\DKIT - YEAR 4  - SEMESTER 2\MULTIPLAYER DISTRIBUTED PROGRAMMING\BOMBERMANMULTIVERSE\TEXTDX.CPP
C:\USERS\CONOR\DOCUMENTS\COLLEGE\DKIT - YEAR 4\DKIT - YEAR 4  - SEMESTER 2\MULTIPLAYER DISTRIBUTED PROGRAMMING\BOMBERMANMULTIVERSE\DEBUG\VC120.PDB
^C:\USERS\CONOR\DOCUMENTS\COLLEGE\DKIT - YEAR 4\DKIT - YEAR 4  - SEMESTER 2\MULTIPLAYER DISTRIBUTED PROGRAMMING\BOMBERMANMULTIVERSE\WINMAIN.CPP
C:\USERS\CONOR\DOCUMENTS\COLLEGE\DKIT - YEAR 4\DKIT - YEAR 4  - SEMESTER 2\MULTIPLAYER DISTRIBUTED PROGRAMMING\BOMBERMANMULTIVERSE\DEBUG\VC120.PDB
