^C:\USERS\CONOR\DOCUMENTS\COLLEGE\DKIT - YEAR 4\DKIT - YEAR 4  - SEMESTER 2\MULTIPLAYER DISTRIBUTED PROGRAMMING\BOMBERMANMULTIVERSE\AUDIO.CPP
/c /I"C:\Program Files (x86)\Microsoft DirectX SDK (June 2010)\\Include" /ZI /nologo /W3 /WX- /Od /Oy- /D _MBCS /Gm /EHsc /RTC1 /MDd /GS /fp:precise /Zc:wchar_t /Zc:forScope /Fo"DEBUG\\" /Fd"DEBUG\VC120.PDB" /Gd /TP /analyze- C:\USERS\CONOR\DOCUMENTS\COLLEGE\DKIT - YEAR 4\DKIT - YEAR 4  - SEMESTER 2\MULTIPLAYER DISTRIBUTED PROGRAMMING\BOMBERMANMULTIVERSE\AUDIO.CPP
^C:\USERS\CONOR\DOCUMENTS\COLLEGE\DKIT - YEAR 4\DKIT - YEAR 4  - SEMESTER 2\MULTIPLAYER DISTRIBUTED PROGRAMMING\BOMBERMANMULTIVERSE\CONSOLE.CPP
/c /I"C:\Program Files (x86)\Microsoft DirectX SDK (June 2010)\\Include" /ZI /nologo /W3 /WX- /Od /Oy- /D _MBCS /Gm /EHsc /RTC1 /MDd /GS /fp:precise /Zc:wchar_t /Zc:forScope /Fo"DEBUG\\" /Fd"DEBUG\VC120.PDB" /Gd /TP /analyze- C:\USERS\CONOR\DOCUMENTS\COLLEGE\DKIT - YEAR 4\DKIT - YEAR 4  - SEMESTER 2\MULTIPLAYER DISTRIBUTED PROGRAMMING\BOMBERMANMULTIVERSE\CONSOLE.CPP
^C:\USERS\CONOR\DOCUMENTS\COLLEGE\DKIT - YEAR 4\DKIT - YEAR 4  - SEMESTER 2\MULTIPLAYER DISTRIBUTED PROGRAMMING\BOMBERMANMULTIVERSE\DASHBOARD.CPP
/c /I"C:\Program Files (x86)\Microsoft DirectX SDK (June 2010)\\Include" /ZI /nologo /W3 /WX- /Od /Oy- /D _MBCS /Gm /EHsc /RTC1 /MDd /GS /fp:precise /Zc:wchar_t /Zc:forScope /Fo"DEBUG\\" /Fd"DEBUG\VC120.PDB" /Gd /TP /analyze- C:\USERS\CONOR\DOCUMENTS\COLLEGE\DKIT - YEAR 4\DKIT - YEAR 4  - SEMESTER 2\MULTIPLAYER DISTRIBUTED PROGRAMMING\BOMBERMANMULTIVERSE\DASHBOARD.CPP
^C:\USERS\CONOR\DOCUMENTS\COLLEGE\DKIT - YEAR 4\DKIT - YEAR 4  - SEMESTER 2\MULTIPLAYER DISTRIBUTED PROGRAMMING\BOMBERMANMULTIVERSE\ENTITY.CPP
/c /I"C:\Program Files (x86)\Microsoft DirectX SDK (June 2010)\\Include" /ZI /nologo /W3 /WX- /Od /Oy- /D _MBCS /Gm /EHsc /RTC1 /MDd /GS /fp:precise /Zc:wchar_t /Zc:forScope /Fo"DEBUG\\" /Fd"DEBUG\VC120.PDB" /Gd /TP /analyze- C:\USERS\CONOR\DOCUMENTS\COLLEGE\DKIT - YEAR 4\DKIT - YEAR 4  - SEMESTER 2\MULTIPLAYER DISTRIBUTED PROGRAMMING\BOMBERMANMULTIVERSE\ENTITY.CPP
^C:\USERS\CONOR\DOCUMENTS\COLLEGE\DKIT - YEAR 4\DKIT - YEAR 4  - SEMESTER 2\MULTIPLAYER DISTRIBUTED PROGRAMMING\BOMBERMANMULTIVERSE\GAME.CPP
/c /I"C:\Program Files (x86)\Microsoft DirectX SDK (June 2010)\\Include" /ZI /nologo /W3 /WX- /Od /Oy- /D _MBCS /Gm /EHsc /RTC1 /MDd /GS /fp:precise /Zc:wchar_t /Zc:forScope /Fo"DEBUG\\" /Fd"DEBUG\VC120.PDB" /Gd /TP /analyze- C:\USERS\CONOR\DOCUMENTS\COLLEGE\DKIT - YEAR 4\DKIT - YEAR 4  - SEMESTER 2\MULTIPLAYER DISTRIBUTED PROGRAMMING\BOMBERMANMULTIVERSE\GAME.CPP
^C:\USERS\CONOR\DOCUMENTS\COLLEGE\DKIT - YEAR 4\DKIT - YEAR 4  - SEMESTER 2\MULTIPLAYER DISTRIBUTED PROGRAMMING\BOMBERMANMULTIVERSE\GRAPHICS.CPP
/c /I"C:\Program Files (x86)\Microsoft DirectX SDK (June 2010)\\Include" /ZI /nologo /W3 /WX- /Od /Oy- /D _MBCS /Gm /EHsc /RTC1 /MDd /GS /fp:precise /Zc:wchar_t /Zc:forScope /Fo"DEBUG\\" /Fd"DEBUG\VC120.PDB" /Gd /TP /analyze- C:\USERS\CONOR\DOCUMENTS\COLLEGE\DKIT - YEAR 4\DKIT - YEAR 4  - SEMESTER 2\MULTIPLAYER DISTRIBUTED PROGRAMMING\BOMBERMANMULTIVERSE\GRAPHICS.CPP
^C:\USERS\CONOR\DOCUMENTS\COLLEGE\DKIT - YEAR 4\DKIT - YEAR 4  - SEMESTER 2\MULTIPLAYER DISTRIBUTED PROGRAMMING\BOMBERMANMULTIVERSE\INPUTDIALOG.CPP
/c /I"C:\Program Files (x86)\Microsoft DirectX SDK (June 2010)\\Include" /ZI /nologo /W3 /WX- /Od /Oy- /D _MBCS /Gm /EHsc /RTC1 /MDd /GS /fp:precise /Zc:wchar_t /Zc:forScope /Fo"DEBUG\\" /Fd"DEBUG\VC120.PDB" /Gd /TP /analyze- C:\USERS\CONOR\DOCUMENTS\COLLEGE\DKIT - YEAR 4\DKIT - YEAR 4  - SEMESTER 2\MULTIPLAYER DISTRIBUTED PROGRAMMING\BOMBERMANMULTIVERSE\INPUTDIALOG.CPP
^C:\USERS\CONOR\DOCUMENTS\COLLEGE\DKIT - YEAR 4\DKIT - YEAR 4  - SEMESTER 2\MULTIPLAYER DISTRIBUTED PROGRAMMING\BOMBERMANMULTIVERSE\MESSAGEDIALOG.CPP
/c /I"C:\Program Files (x86)\Microsoft DirectX SDK (June 2010)\\Include" /ZI /nologo /W3 /WX- /Od /Oy- /D _MBCS /Gm /EHsc /RTC1 /MDd /GS /fp:precise /Zc:wchar_t /Zc:forScope /Fo"DEBUG\\" /Fd"DEBUG\VC120.PDB" /Gd /TP /analyze- C:\USERS\CONOR\DOCUMENTS\COLLEGE\DKIT - YEAR 4\DKIT - YEAR 4  - SEMESTER 2\MULTIPLAYER DISTRIBUTED PROGRAMMING\BOMBERMANMULTIVERSE\MESSAGEDIALOG.CPP
^C:\USERS\CONOR\DOCUMENTS\COLLEGE\DKIT - YEAR 4\DKIT - YEAR 4  - SEMESTER 2\MULTIPLAYER DISTRIBUTED PROGRAMMING\BOMBERMANMULTIVERSE\TEXT.CPP
/c /I"C:\Program Files (x86)\Microsoft DirectX SDK (June 2010)\\Include" /ZI /nologo /W3 /WX- /Od /Oy- /D _MBCS /Gm /EHsc /RTC1 /MDd /GS /fp:precise /Zc:wchar_t /Zc:forScope /Fo"DEBUG\\" /Fd"DEBUG\VC120.PDB" /Gd /TP /analyze- C:\USERS\CONOR\DOCUMENTS\COLLEGE\DKIT - YEAR 4\DKIT - YEAR 4  - SEMESTER 2\MULTIPLAYER DISTRIBUTED PROGRAMMING\BOMBERMANMULTIVERSE\TEXT.CPP
^C:\USERS\CONOR\DOCUMENTS\COLLEGE\DKIT - YEAR 4\DKIT - YEAR 4  - SEMESTER 2\MULTIPLAYER DISTRIBUTED PROGRAMMING\BOMBERMANMULTIVERSE\TEXTUREMANAGER.CPP
/c /I"C:\Program Files (x86)\Microsoft DirectX SDK (June 2010)\\Include" /ZI /nologo /W3 /WX- /Od /Oy- /D _MBCS /Gm /EHsc /RTC1 /MDd /GS /fp:precise /Zc:wchar_t /Zc:forScope /Fo"DEBUG\\" /Fd"DEBUG\VC120.PDB" /Gd /TP /analyze- C:\USERS\CONOR\DOCUMENTS\COLLEGE\DKIT - YEAR 4\DKIT - YEAR 4  - SEMESTER 2\MULTIPLAYER DISTRIBUTED PROGRAMMING\BOMBERMANMULTIVERSE\TEXTUREMANAGER.CPP
^C:\USERS\CONOR\DOCUMENTS\COLLEGE\DKIT - YEAR 4\DKIT - YEAR 4  - SEMESTER 2\MULTIPLAYER DISTRIBUTED PROGRAMMING\BOMBERMANMULTIVERSE\INPUT.CPP
/c /I"C:\Program Files (x86)\Microsoft DirectX SDK (June 2010)\\Include" /ZI /nologo /W3 /WX- /Od /Oy- /D _MBCS /Gm /EHsc /RTC1 /MDd /GS /fp:precise /Zc:wchar_t /Zc:forScope /Fo"DEBUG\\" /Fd"DEBUG\VC120.PDB" /Gd /TP /analyze- C:\USERS\CONOR\DOCUMENTS\COLLEGE\DKIT - YEAR 4\DKIT - YEAR 4  - SEMESTER 2\MULTIPLAYER DISTRIBUTED PROGRAMMING\BOMBERMANMULTIVERSE\INPUT.CPP
^C:\USERS\CONOR\DOCUMENTS\COLLEGE\DKIT - YEAR 4\DKIT - YEAR 4  - SEMESTER 2\MULTIPLAYER DISTRIBUTED PROGRAMMING\BOMBERMANMULTIVERSE\CREATETHISCLASS.CPP
/c /I"C:\Program Files (x86)\Microsoft DirectX SDK (June 2010)\\Include" /ZI /nologo /W3 /WX- /Od /Oy- /D _MBCS /Gm /EHsc /RTC1 /MDd /GS /fp:precise /Zc:wchar_t /Zc:forScope /Fo"DEBUG\\" /Fd"DEBUG\VC120.PDB" /Gd /TP /analyze- C:\USERS\CONOR\DOCUMENTS\COLLEGE\DKIT - YEAR 4\DKIT - YEAR 4  - SEMESTER 2\MULTIPLAYER DISTRIBUTED PROGRAMMING\BOMBERMANMULTIVERSE\CREATETHISCLASS.CPP
^C:\USERS\CONOR\DOCUMENTS\COLLEGE\DKIT - YEAR 4\DKIT - YEAR 4  - SEMESTER 2\MULTIPLAYER DISTRIBUTED PROGRAMMING\BOMBERMANMULTIVERSE\IMAGE.CPP
/c /I"C:\Program Files (x86)\Microsoft DirectX SDK (June 2010)\\Include" /ZI /nologo /W3 /WX- /Od /Oy- /D _MBCS /Gm /EHsc /RTC1 /MDd /GS /fp:precise /Zc:wchar_t /Zc:forScope /Fo"DEBUG\\" /Fd"DEBUG\VC120.PDB" /Gd /TP /analyze- C:\USERS\CONOR\DOCUMENTS\COLLEGE\DKIT - YEAR 4\DKIT - YEAR 4  - SEMESTER 2\MULTIPLAYER DISTRIBUTED PROGRAMMING\BOMBERMANMULTIVERSE\IMAGE.CPP
^C:\USERS\CONOR\DOCUMENTS\COLLEGE\DKIT - YEAR 4\DKIT - YEAR 4  - SEMESTER 2\MULTIPLAYER DISTRIBUTED PROGRAMMING\BOMBERMANMULTIVERSE\TEXTDX.CPP
/c /I"C:\Program Files (x86)\Microsoft DirectX SDK (June 2010)\\Include" /ZI /nologo /W3 /WX- /Od /Oy- /D _MBCS /Gm /EHsc /RTC1 /MDd /GS /fp:precise /Zc:wchar_t /Zc:forScope /Fo"DEBUG\\" /Fd"DEBUG\VC120.PDB" /Gd /TP /analyze- C:\USERS\CONOR\DOCUMENTS\COLLEGE\DKIT - YEAR 4\DKIT - YEAR 4  - SEMESTER 2\MULTIPLAYER DISTRIBUTED PROGRAMMING\BOMBERMANMULTIVERSE\TEXTDX.CPP
^C:\USERS\CONOR\DOCUMENTS\COLLEGE\DKIT - YEAR 4\DKIT - YEAR 4  - SEMESTER 2\MULTIPLAYER DISTRIBUTED PROGRAMMING\BOMBERMANMULTIVERSE\WINMAIN.CPP
/c /I"C:\Program Files (x86)\Microsoft DirectX SDK (June 2010)\\Include" /ZI /nologo /W3 /WX- /Od /Oy- /D _MBCS /Gm /EHsc /RTC1 /MDd /GS /fp:precise /Zc:wchar_t /Zc:forScope /Fo"DEBUG\\" /Fd"DEBUG\VC120.PDB" /Gd /TP /analyze- C:\USERS\CONOR\DOCUMENTS\COLLEGE\DKIT - YEAR 4\DKIT - YEAR 4  - SEMESTER 2\MULTIPLAYER DISTRIBUTED PROGRAMMING\BOMBERMANMULTIVERSE\WINMAIN.CPP
