^C:\USERS\CONOR\DOCUMENTS\COLLEGE\DKIT - YEAR 4\DKIT - YEAR 4  - SEMESTER 2\MULTIPLAYER DISTRIBUTED PROGRAMMING\BOMBERMANMULTIVERSE\DEBUG\AUDIO.OBJ|C:\USERS\CONOR\DOCUMENTS\COLLEGE\DKIT - YEAR 4\DKIT - YEAR 4  - SEMESTER 2\MULTIPLAYER DISTRIBUTED PROGRAMMING\BOMBERMANMULTIVERSE\DEBUG\CONSOLE.OBJ|C:\USERS\CONOR\DOCUMENTS\COLLEGE\DKIT - YEAR 4\DKIT - YEAR 4  - SEMESTER 2\MULTIPLAYER DISTRIBUTED PROGRAMMING\BOMBERMANMULTIVERSE\DEBUG\CREATETHISCLASS.OBJ|C:\USERS\CONOR\DOCUMENTS\COLLEGE\DKIT - YEAR 4\DKIT - YEAR 4  - SEMESTER 2\MULTIPLAYER DISTRIBUTED PROGRAMMING\BOMBERMANMULTIVERSE\DEBUG\DASHBOARD.OBJ|C:\USERS\CONOR\DOCUMENTS\COLLEGE\DKIT - YEAR 4\DKIT - YEAR 4  - SEMESTER 2\MULTIPLAYER DISTRIBUTED PROGRAMMING\BOMBERMANMULTIVERSE\DEBUG\ENTITY.OBJ|C:\USERS\CONOR\DOCUMENTS\COLLEGE\DKIT - YEAR 4\DKIT - YEAR 4  - SEMESTER 2\MULTIPLAYER DISTRIBUTED PROGRAMMING\BOMBERMANMULTIVERSE\DEBUG\GAME.OBJ|C:\USERS\CONOR\DOCUMENTS\COLLEGE\DKIT - YEAR 4\DKIT - YEAR 4  - SEMESTER 2\MULTIPLAYER DISTRIBUTED PROGRAMMING\BOMBERMANMULTIVERSE\DEBUG\GRAPHICS.OBJ|C:\USERS\CONOR\DOCUMENTS\COLLEGE\DKIT - YEAR 4\DKIT - YEAR 4  - SEMESTER 2\MULTIPLAYER DISTRIBUTED PROGRAMMING\BOMBERMANMULTIVERSE\DEBUG\IMAGE.OBJ|C:\USERS\CONOR\DOCUMENTS\COLLEGE\DKIT - YEAR 4\DKIT - YEAR 4  - SEMESTER 2\MULTIPLAYER DISTRIBUTED PROGRAMMING\BOMBERMANMULTIVERSE\DEBUG\INPUT.OBJ|C:\USERS\CONOR\DOCUMENTS\COLLEGE\DKIT - YEAR 4\DKIT - YEAR 4  - SEMESTER 2\MULTIPLAYER DISTRIBUTED PROGRAMMING\BOMBERMANMULTIVERSE\DEBUG\INPUTDIALOG.OBJ|C:\USERS\CONOR\DOCUMENTS\COLLEGE\DKIT - YEAR 4\DKIT - YEAR 4  - SEMESTER 2\MULTIPLAYER DISTRIBUTED PROGRAMMING\BOMBERMANMULTIVERSE\DEBUG\MESSAGEDIALOG.OBJ|C:\USERS\CONOR\DOCUMENTS\COLLEGE\DKIT - YEAR 4\DKIT - YEAR 4  - SEMESTER 2\MULTIPLAYER DISTRIBUTED PROGRAMMING\BOMBERMANMULTIVERSE\DEBUG\TEXT.OBJ|C:\USERS\CONOR\DOCUMENTS\COLLEGE\DKIT - YEAR 4\DKIT - YEAR 4  - SEMESTER 2\MULTIPLAYER DISTRIBUTED PROGRAMMING\BOMBERMANMULTIVERSE\DEBUG\TEXTDX.OBJ|C:\USERS\CONOR\DOCUMENTS\COLLEGE\DKIT - YEAR 4\DKIT - YEAR 4  - SEMESTER 2\MULTIPLAYER DISTRIBUTED PROGRAMMING\BOMBERMANMULTIVERSE\DEBUG\TEXTUREMANAGER.OBJ|C:\USERS\CONOR\DOCUMENTS\COLLEGE\DKIT - YEAR 4\DKIT - YEAR 4  - SEMESTER 2\MULTIPLAYER DISTRIBUTED PROGRAMMING\BOMBERMANMULTIVERSE\DEBUG\WINMAIN.OBJ
C:\PROGRAM FILES (X86)\MICROSOFT DIRECTX SDK (JUNE 2010)\LIB\X86\D3D9.LIB
C:\PROGRAM FILES (X86)\MICROSOFT DIRECTX SDK (JUNE 2010)\LIB\X86\D3DX9.LIB
C:\PROGRAM FILES (X86)\WINDOWS KITS\8.1\LIB\WINV6.3\UM\X86\WINMM.LIB
C:\PROGRAM FILES (X86)\MICROSOFT DIRECTX SDK (JUNE 2010)\LIB\X86\XINPUT.LIB
C:\PROGRAM FILES (X86)\WINDOWS KITS\8.1\LIB\WINV6.3\UM\X86\KERNEL32.LIB
C:\PROGRAM FILES (X86)\WINDOWS KITS\8.1\LIB\WINV6.3\UM\X86\USER32.LIB
C:\PROGRAM FILES (X86)\WINDOWS KITS\8.1\LIB\WINV6.3\UM\X86\GDI32.LIB
C:\PROGRAM FILES (X86)\WINDOWS KITS\8.1\LIB\WINV6.3\UM\X86\WINSPOOL.LIB
C:\PROGRAM FILES (X86)\WINDOWS KITS\8.1\LIB\WINV6.3\UM\X86\COMDLG32.LIB
C:\PROGRAM FILES (X86)\WINDOWS KITS\8.1\LIB\WINV6.3\UM\X86\ADVAPI32.LIB
C:\PROGRAM FILES (X86)\WINDOWS KITS\8.1\LIB\WINV6.3\UM\X86\SHELL32.LIB
C:\PROGRAM FILES (X86)\WINDOWS KITS\8.1\LIB\WINV6.3\UM\X86\OLE32.LIB
C:\PROGRAM FILES (X86)\WINDOWS KITS\8.1\LIB\WINV6.3\UM\X86\OLEAUT32.LIB
C:\PROGRAM FILES (X86)\WINDOWS KITS\8.1\LIB\WINV6.3\UM\X86\UUID.LIB
C:\PROGRAM FILES (X86)\WINDOWS KITS\8.1\LIB\WINV6.3\UM\X86\ODBC32.LIB
C:\PROGRAM FILES (X86)\WINDOWS KITS\8.1\LIB\WINV6.3\UM\X86\ODBCCP32.LIB
C:\USERS\CONOR\DOCUMENTS\COLLEGE\DKIT - YEAR 4\DKIT - YEAR 4  - SEMESTER 2\MULTIPLAYER DISTRIBUTED PROGRAMMING\BOMBERMANMULTIVERSE\DEBUG\AUDIO.OBJ
C:\USERS\CONOR\DOCUMENTS\COLLEGE\DKIT - YEAR 4\DKIT - YEAR 4  - SEMESTER 2\MULTIPLAYER DISTRIBUTED PROGRAMMING\BOMBERMANMULTIVERSE\DEBUG\CONSOLE.OBJ
C:\USERS\CONOR\DOCUMENTS\COLLEGE\DKIT - YEAR 4\DKIT - YEAR 4  - SEMESTER 2\MULTIPLAYER DISTRIBUTED PROGRAMMING\BOMBERMANMULTIVERSE\DEBUG\DASHBOARD.OBJ
C:\USERS\CONOR\DOCUMENTS\COLLEGE\DKIT - YEAR 4\DKIT - YEAR 4  - SEMESTER 2\MULTIPLAYER DISTRIBUTED PROGRAMMING\BOMBERMANMULTIVERSE\DEBUG\ENTITY.OBJ
C:\USERS\CONOR\DOCUMENTS\COLLEGE\DKIT - YEAR 4\DKIT - YEAR 4  - SEMESTER 2\MULTIPLAYER DISTRIBUTED PROGRAMMING\BOMBERMANMULTIVERSE\DEBUG\GAME.OBJ
C:\USERS\CONOR\DOCUMENTS\COLLEGE\DKIT - YEAR 4\DKIT - YEAR 4  - SEMESTER 2\MULTIPLAYER DISTRIBUTED PROGRAMMING\BOMBERMANMULTIVERSE\DEBUG\GRAPHICS.OBJ
C:\USERS\CONOR\DOCUMENTS\COLLEGE\DKIT - YEAR 4\DKIT - YEAR 4  - SEMESTER 2\MULTIPLAYER DISTRIBUTED PROGRAMMING\BOMBERMANMULTIVERSE\DEBUG\INPUTDIALOG.OBJ
C:\USERS\CONOR\DOCUMENTS\COLLEGE\DKIT - YEAR 4\DKIT - YEAR 4  - SEMESTER 2\MULTIPLAYER DISTRIBUTED PROGRAMMING\BOMBERMANMULTIVERSE\DEBUG\MESSAGEDIALOG.OBJ
C:\USERS\CONOR\DOCUMENTS\COLLEGE\DKIT - YEAR 4\DKIT - YEAR 4  - SEMESTER 2\MULTIPLAYER DISTRIBUTED PROGRAMMING\BOMBERMANMULTIVERSE\DEBUG\TEXT.OBJ
C:\USERS\CONOR\DOCUMENTS\COLLEGE\DKIT - YEAR 4\DKIT - YEAR 4  - SEMESTER 2\MULTIPLAYER DISTRIBUTED PROGRAMMING\BOMBERMANMULTIVERSE\DEBUG\TEXTUREMANAGER.OBJ
C:\USERS\CONOR\DOCUMENTS\COLLEGE\DKIT - YEAR 4\DKIT - YEAR 4  - SEMESTER 2\MULTIPLAYER DISTRIBUTED PROGRAMMING\BOMBERMANMULTIVERSE\DEBUG\INPUT.OBJ
C:\USERS\CONOR\DOCUMENTS\COLLEGE\DKIT - YEAR 4\DKIT - YEAR 4  - SEMESTER 2\MULTIPLAYER DISTRIBUTED PROGRAMMING\BOMBERMANMULTIVERSE\DEBUG\CREATETHISCLASS.OBJ
C:\USERS\CONOR\DOCUMENTS\COLLEGE\DKIT - YEAR 4\DKIT - YEAR 4  - SEMESTER 2\MULTIPLAYER DISTRIBUTED PROGRAMMING\BOMBERMANMULTIVERSE\DEBUG\IMAGE.OBJ
C:\USERS\CONOR\DOCUMENTS\COLLEGE\DKIT - YEAR 4\DKIT - YEAR 4  - SEMESTER 2\MULTIPLAYER DISTRIBUTED PROGRAMMING\BOMBERMANMULTIVERSE\DEBUG\TEXTDX.OBJ
C:\USERS\CONOR\DOCUMENTS\COLLEGE\DKIT - YEAR 4\DKIT - YEAR 4  - SEMESTER 2\MULTIPLAYER DISTRIBUTED PROGRAMMING\BOMBERMANMULTIVERSE\DEBUG\WINMAIN.OBJ
C:\WINDOWS\GLOBALIZATION\SORTING\SORTDEFAULT.NLS
C:\PROGRAM FILES (X86)\MICROSOFT VISUAL STUDIO 12.0\VC\BIN\1033\LINKUI.DLL
C:\PROGRAM FILES (X86)\MICROSOFT VISUAL STUDIO 12.0\VC\LIB\MSVCRTD.LIB
C:\PROGRAM FILES (X86)\MICROSOFT VISUAL STUDIO 12.0\VC\LIB\OLDNAMES.LIB
C:\PROGRAM FILES (X86)\MICROSOFT VISUAL STUDIO 12.0\VC\LIB\MSVCPRTD.LIB
C:\PROGRAM FILES (X86)\WINDOWS KITS\8.1\BIN\X86\RC.EXE
C:\PROGRAM FILES (X86)\MICROSOFT VISUAL STUDIO 12.0\VC\BIN\CVTRES.EXE
C:\WINDOWS\SYSTEM32\TZRES.DLL
